<svg width="24" height="24" viewBox="0 0 24 24" fill="none" xmlns="http://www.w3.org/2000/svg">
<path d="M20.6672 6.38906C20.6955 6.37255 20.719 6.34891 20.7353 6.32049C20.7516 6.29208 20.7602 6.25988 20.7602 6.22711C20.7602 6.19434 20.7516 6.16215 20.7353 6.13373C20.719 6.10531 20.6955 6.08167 20.6672 6.06516L13.5075 1.90547C13.0494 1.63993 12.5293 1.50009 11.9998 1.50009C11.4703 1.50009 10.9501 1.63993 10.492 1.90547L3.33375 6.06516C3.30545 6.08167 3.28197 6.10531 3.26565 6.13373C3.24933 6.16215 3.24074 6.19434 3.24074 6.22711C3.24074 6.25988 3.24933 6.29208 3.26565 6.32049C3.28197 6.34891 3.30545 6.37255 3.33375 6.38906L11.9063 11.4319C11.9351 11.4489 11.9679 11.4578 12.0014 11.4578C12.0349 11.4578 12.0677 11.4489 12.0966 11.4319L20.6672 6.38906ZM2.53125 7.66453C2.50266 7.64802 2.47022 7.63936 2.4372 7.63941C2.40418 7.63946 2.37177 7.64823 2.34323 7.66483C2.31469 7.68144 2.29104 7.70528 2.27467 7.73395C2.2583 7.76262 2.24979 7.79511 2.25 7.82813V15.9792C2.25071 16.372 2.35424 16.7578 2.55029 17.0982C2.74634 17.4385 3.02809 17.7217 3.3675 17.9194L10.9688 22.477C10.9972 22.4935 11.0296 22.5021 11.0625 22.5022C11.0954 22.5022 11.1277 22.4935 11.1562 22.4771C11.1847 22.4606 11.2083 22.437 11.2248 22.4085C11.2413 22.3801 11.25 22.3477 11.25 22.3148V12.8578C11.25 12.8249 11.2413 12.7926 11.2248 12.7642C11.2084 12.7357 11.1847 12.7121 11.1563 12.6956L2.53125 7.66453ZM12.75 12.8906V22.3125C12.75 22.3454 12.7587 22.3777 12.7752 22.4062C12.7917 22.4347 12.8153 22.4583 12.8438 22.4747C12.8723 22.4912 12.9047 22.4998 12.9376 22.4998C12.9705 22.4998 13.0028 22.4911 13.0313 22.4747L20.632 17.917C20.9712 17.7196 21.2528 17.4369 21.4489 17.0969C21.6451 16.757 21.7488 16.3717 21.75 15.9792V7.82813C21.7499 7.79527 21.7411 7.76302 21.7246 7.73461C21.7081 7.7062 21.6845 7.68262 21.656 7.66624C21.6275 7.64986 21.5952 7.64126 21.5623 7.64129C21.5295 7.64132 21.4972 7.64998 21.4688 7.66641L12.8438 12.7289C12.8153 12.7453 12.7917 12.7689 12.7753 12.7973C12.7588 12.8256 12.7501 12.8578 12.75 12.8906Z" fill="white"/>
</svg>
