<?xml version="1.0" encoding="utf-8"?>
<svg width="24" height="24" viewBox="0 0 24 24" fill="none" xmlns="http://www.w3.org/2000/svg">
  <path d="M 3.792 2.424 C 2.58 2.424 1.548 3.224 1.548 4.343 L 1.548 19.205 C 1.548 20.324 2.58 21.339 3.792 21.339 L 19.871 21.339 C 21.082 21.339 22.065 20.431 22.065 19.313 L 22.065 4.45 C 22.065 3.332 21.082 2.424 19.871 2.424 L 3.792 2.424 Z M 7.382 7.436 L 15.78 7.436 C 16.315 8.545 16.533 9.721 16.735 10.901 C 16.698 10.912 16.661 10.921 16.623 10.931 C 16.597 10.862 16.565 10.795 16.544 10.724 C 16.389 10.216 16.234 9.707 16.088 9.198 C 16.035 9.015 15.909 8.923 15.732 8.833 C 15.469 8.702 15.22 8.532 15.003 8.343 C 14.865 8.221 14.746 8.147 14.55 8.149 C 13.239 8.162 11.928 8.163 10.619 8.175 C 10.531 8.175 10.422 8.205 10.361 8.258 C 10.123 8.462 9.899 8.681 9.606 8.954 C 10.381 10.699 10.771 12.6 10.603 14.622 C 10.23 14.4 9.942 14.227 9.926 13.765 C 9.84 11.459 9.07 9.373 7.462 7.579 C 7.426 7.539 7.408 7.484 7.382 7.436 Z M 6.604 8.325 C 6.79 8.325 6.977 8.326 7.163 8.331 C 7.237 8.332 7.341 8.376 7.378 8.431 C 8.493 10.087 9.362 11.825 9.475 13.815 C 9.475 13.823 9.466 13.831 9.434 13.89 C 8.768 11.784 7.566 10.002 6.02 8.404 C 6.028 8.377 6.035 8.352 6.044 8.326 C 6.231 8.326 6.417 8.325 6.604 8.325 Z M 6.278 9.731 C 6.324 9.73 6.377 9.786 6.415 9.824 C 7.295 10.729 8.093 11.685 8.585 12.827 C 8.679 13.046 8.744 13.273 8.821 13.497 C 7.802 12.014 6.383 10.905 4.843 9.775 C 5.376 9.757 5.827 9.738 6.278 9.731 Z M 19.394 10.532 C 19.417 10.53 19.439 10.532 19.461 10.538 C 16.113 12.335 12.918 14.304 10.575 17.286 L 7.859 13.296 L 7.892 13.257 C 7.968 13.313 9.561 14.494 10.277 15.035 C 10.476 15.186 10.627 15.184 10.834 15.028 C 13.268 13.201 15.984 11.817 18.868 10.702 C 19.023 10.643 19.182 10.595 19.339 10.543 C 19.356 10.538 19.375 10.534 19.394 10.532 Z" fill="black" style=""/>
</svg>